
L2-loss TRON
Opt = 1.91350179622278710667e+03
Iter 1
FUN 3.99999999999694227881e+03 acc 0 time 0.373075
Iter 8
FUN 1.98099329038798668989e+03 acc 88.409 time 5.93255
Iter 17
FUN 1.91537331926364709034e+03 acc 88.958 time 12.1436
Computation Time: 12.0878 s, Sync Time: 0.000722221 s, Communication Time: 0.0551969 s, IO Time: 68.8237 s
