
L2-loss DSVM
Opt = 3.78080227232598673481e+01
Iter 10 Dual -9.294753173797679e+00 Primal 3.938003412826294e+01 Time 0.553042 Accuracy 70.49
Iter 11 Dual -1.628916336632090e+01 Primal 3.894181022430089e+01 Time 0.89397 Accuracy 71.601
Iter 12 Dual -2.155779560321409e+01 Primal 3.862936147306960e+01 Time 1.23144 Accuracy 71.932
Iter 13 Dual -2.552982200670504e+01 Primal 3.840560700236293e+01 Time 1.56811 Accuracy 72.498
Iter 14 Dual -2.852653351135799e+01 Primal 3.824437441545789e+01 Time 1.90441 Accuracy 72.943
Iter 15 Dual -3.078885934960888e+01 Primal 3.812757886390247e+01 Time 2.24962 Accuracy 73.264
Iter 16 Dual -3.249771211138231e+01 Primal 3.804272173924370e+01 Time 2.58598 Accuracy 73.607
Iter 17 Dual -3.378914157978895e+01 Primal 3.798072409219034e+01 Time 2.92278 Accuracy 73.905
Iter 18 Dual -3.476552596506392e+01 Primal 3.793544135004727e+01 Time 3.26525 Accuracy 74.115
Iter 19 Dual -3.550401176000356e+01 Primal 3.790211878097286e+01 Time 3.60185 Accuracy 74.434
Iter 20 Dual -3.606276081329587e+01 Primal 3.787764146065550e+01 Time 3.93827 Accuracy 74.664
Iter 21 Dual -3.648565912608242e+01 Primal 3.785964238482671e+01 Time 4.275 Accuracy 74.806
Iter 22 Dual -3.680583995580380e+01 Primal 3.784627422449106e+01 Time 4.61186 Accuracy 75.064
Iter 23 Dual -3.704831067741468e+01 Primal 3.783641874541754e+01 Time 4.94858 Accuracy 75.215
Iter 24 Dual -3.723197851694742e+01 Primal 3.782912712376421e+01 Time 5.28591 Accuracy 75.373
Iter 25 Dual -3.737114167346889e+01 Primal 3.782371154650769e+01 Time 5.62436 Accuracy 75.513
Iter 26 Dual -3.747660711653296e+01 Primal 3.781969140743212e+01 Time 5.96231 Accuracy 75.602
Computation Time: 5.93273 s, Sync Time: 0.0010769 s, Communication Time: 0.0285223 s, IO Time: 34.9135 s
